<svg xmlns="http://www.w3.org/2000/svg"
     viewBox="0 0 1000 200">

    <circle r="60" cy="97" cx="497"
            stroke-width="2" stroke="#E4AF4C"
            fill="red" />

    <rect x="349" y="67"
          width="302" height="66"
          rx="5" ry="5"
          stroke="#E4AF4C"
          fill="#F4D37D"
          stroke-width="2" />

</svg>